…
We will take the mushroom odour as our target and all the rest as features. 

## Coercing Data
Typical models from `MLJ` assume that elements in each column of a table have some `scientific type` as defined by the [ScientificTypes.jl](https://juliaai.github.io/ScientificTypes.jl/dev/) package. It's often necessary to coerce the types inferred by default to the appropriate type.


```julia
ScientificTypes.schema(df)
```


    ┌──────────────────────────┬────────────────┬───────────────────────────────────
    │ names                    │ scitypes       │ types                            ⋯
    ├──────────────────────────┼────────────────┼───────────────────────────────────
    │ class                    │ Multiclass{2}  │ CategoricalValue{String1, UInt32 ⋯
    │ cap-shape                │ Multiclass{6}  │ CategoricalValue{String1, UInt32 ⋯
    │ cap-surface              │ Multiclass{4}  │ CategoricalValue{String1, UInt32 ⋯
    │ cap-color                │ Multiclass{10} │ CategoricalValue{String1, UInt32 ⋯
    │ bruises                  │ Multiclass{2}  │ CategoricalValue{String1, UInt32 ⋯
    │ odor                     │ Multiclass{9}  │ CategoricalValue{String1, UInt32 ⋯
    │ gill-attachment          │ Multiclass{2}  │ CategoricalValue{String1, UInt32 ⋯
    │ gill-spacing             │ Multiclass{2}  │ CategoricalValue{String1, UInt32 ⋯
    │ gill-size                │ Multiclass{2}  │ CategoricalValue{String1, UInt32 ⋯
    │ gill-color               │ Multiclass{12} │ CategoricalValue{String1, UInt32 ⋯
    │ stalk-shape              │ Multiclass{2}  │ CategoricalValue{String1, UInt32 ⋯
    │ stalk-root               │ Multiclass{5}  │ CategoricalValue{String1, UInt32 ⋯
    │ stalk-surface-above-ring │ Multiclass{4}  │ CategoricalValue{String1, UInt32 ⋯
    │ stalk-surface-below-ring │ Multiclass{4}  │ CategoricalValue{String1, UInt32 ⋯
    │ stalk-color-above-ring   │ Multiclass{9}  │ CategoricalValue{String1, UInt32 ⋯
    │ stalk-color-below-ring   │ Multiclass{9}  │ CategoricalValue{String1, UInt32 ⋯
    │            ⋮             │       ⋮        │                 ⋮                ⋱
    └──────────────────────────┴────────────────┴───────────────────────────────────
                                                         1 column and 7 rows omitted



For instance, here we need to coerce all the data to `Multiclass` as they are all nominal variables. `Textual` would be the right type for natural language processing models. Instead of typing in each column manually, `autotype` lets us perform mass conversion using pre-defined rules.


```julia
df = coerce(df, autotype(df, :few_to_finite))
ScientificTypes.schema(df)
```


    ┌──────────────────────────┬────────────────┬───────────────────────────────────
    │ names                    │ scitypes       │ types                            ⋯
    ├──────────────────────────┼────────────────┼───────────────────────────────────
    │ class                    │ Multiclass{2}  │ CategoricalValue{String1, UInt32 ⋯
    │ cap-shape                │ Multiclass{6}  │ CategoricalValue{String1, UInt32 ⋯
    │ cap-surface              │ Multiclass{4}  │ CategoricalValue{String1, UInt32 ⋯
    │ cap-color                │ Multiclass{10} │ CategoricalValue{String1, UInt32 ⋯
    │ bruises                  │ Multiclass{2}  │ CategoricalValue{String1, UInt32 ⋯
    │ odor                     │ Multiclass{9}  │ CategoricalValue{String1, UInt32 ⋯
    │ gill-attachment          │ Multiclass{2}  │ CategoricalValue{String1, UInt32 ⋯
    │ gill-spacing             │ Multiclass{2}  │ CategoricalValue{String1, UInt32 ⋯
    │ gill-size                │ Multiclass{2}  │ CategoricalValue{String1, UInt32 ⋯
    │ gill-color               │ Multiclass{12} │ CategoricalValue{String1, UInt32 ⋯
    │ stalk-shape              │ Multiclass{2}  │ CategoricalValue{String1, UInt32 ⋯
    │ stalk-root               │ Multiclass{5}  │ CategoricalValue{String1, UInt32 ⋯
    │ stalk-surface-above-ring │ Multiclass{4}  │ CategoricalValue{String1, UInt32 ⋯
    │ stalk-surface-below-ring │ Multiclass{4}  │ CategoricalValue{String1, UInt32 ⋯
    │ stalk-color-above-ring   │ Multiclass{9}  │ CategoricalValue{String1, UInt32 ⋯
    │ stalk-color-below-ring   │ Multiclass{9}  │ CategoricalValue{String1, UInt32 ⋯
    │            ⋮             │       ⋮        │                 ⋮                ⋱
    └──────────────────────────┴────────────────┴───────────────────────────────────
                                                         1 column and 7 rows omitted
…
