SMOTENC on Customer Churn Data · Imbalance.jl
…
(CategoricalValue{Int64, UInt32}[0, 1, 1, 0, 0, 0, 0, 0, 0, 0  …  0, 0, 0, 1, 0, 0, 0, 0, 1, 0], CategoricalValue{Int64, UInt32}[0, 0, 0, 0, 0, 1, 1, 0, 0, 0  …  0, 0, 0, 0, 0, 0, 0, 0, 0, 0])
Oversampling
Before deciding to oversample, let's see how adverse is the imbalance problem, if it exists. Ideally, you may as well check if the classification model is robust to this problem.

checkbalance(y)         # comes from Imbalance

1: ▇▇▇▇▇▇▇▇▇▇▇▇▇ 2037 (25.6%) 
0: ▇▇▇▇▇▇▇▇▇▇▇▇▇▇▇▇▇▇▇▇▇▇▇▇▇▇▇▇▇▇▇▇▇▇▇▇▇▇▇▇▇▇▇▇▇▇▇▇▇▇ 7963 (100.0%)
Looks like we have a class imbalance problem. Let's oversample with SMOTE-NC and set the desired ratios so that the positive minority class is 90% of the majority class

Xover, yover = smotenc(X_train, y_train; k=3, ratios=Dict(1=>0.9), rng=42)

(12109×10 DataFrame
   Row │ CreditScore  Geography  Gender  Age   Tenure  Balance         NumOfPr ⋯
       │ Cat…         Cat…       Cat…    Cat…  Cat…    Float64         Cat…    ⋯
───────┼────────────────────────────────────────────────────────────────────────
     1 │ 551          France     Female  38    10           0.0        2       ⋯
     2 │ 676          France     Female  37    5        89634.7        1
     3 │ 543          France     Male    42    4        89838.7        3
     4 │ 663          France     Male    34    10           0.0        1
     5 │ 621          Germany    Female  34    2        91258.5        2       ⋯
     6 │ 723          France     Male    28    4            0.0        2
     7 │ 735          France     Female  21    1            1.78718e5  2
     8 │ 501          France     Male    35    6        99760.8        1
   ⋮   │      ⋮           ⋮        ⋮      ⋮      ⋮           ⋮               ⋮ ⋱
 12103 │ 551          France     Female  40    2            1.68002e5  1       ⋯
 12104 │ 716          France     Female  46    2            1.09379e5  2
 12105 │ 850          Spain      Female  45    10           1.66777e5  1
 12106 │ 785          France     Female  39    9            1.33118e5  1
 12107 │ 565          Germany    Female  39    5            1.44874e5  1       ⋯
 12108 │ 510          Germany    Male    43    0            1.38862e5  1
 12109 │ 760          France     Female  41    2       113419.0        1
                                                4 columns and 12094 rows omitted, CategoricalValue{Int64, UInt32}[0, 1, 1, 0, 0, 0, 0, 0, 0, 0  …  1, 1, 1, 1, 1, 1, 1, 1, 1, 1])
…
