…
## Coercing Data

Let's look at the schema first


```julia
ScientificTypes.schema(df)
```


    ┌──────────────────────────────────────────────────────┬────────────┬─────────┐
    │ names                                                │ scitypes   │ types   │
    ├──────────────────────────────────────────────────────┼────────────┼─────────┤
    │ FLAG                                                 │ Count      │ Int64   │
    │ Avg min between sent tnx                             │ Continuous │ Float64 │
    │ Avg min between received tnx                         │ Continuous │ Float64 │
    │ Time Diff between first and last (Mins)              │ Continuous │ Float64 │
    │ Sent tnx                                             │ Count      │ Int64   │
    │ Received Tnx                                         │ Count      │ Int64   │
    │ Number of Created Contracts                          │ Count      │ Int64   │
    │ Unique Received From Addresses                       │ Count      │ Int64   │
    │ Unique Sent To Addresses                             │ Count      │ Int64   │
    │ min value received                                   │ Continuous │ Float64 │
    │ max value received                                   │ Continuous │ Float64 │
    │ avg val received                                     │ Continuous │ Float64 │
    │ min val sent                                         │ Continuous │ Float64 │
    │ max val sent                                         │ Continuous │ Float64 │
    │ avg val sent                                         │ Continuous │ Float64 │
    │ min value sent to contract                           │ Continuous │ Float64 │
    │                          ⋮                           │     ⋮      │    ⋮    │
    └──────────────────────────────────────────────────────┴────────────┴─────────┘
                                                                    30 rows omitted



The `FLAG` target should definitely be Multiclass, the rest seems fine.


```julia
df = coerce(df, :FLAG =>Multiclass)
ScientificTypes.schema(df)
```


    ┌──────────────────────────────────────────────────────┬───────────────┬────────
    │ names                                                │ scitypes      │ types ⋯
    ├──────────────────────────────────────────────────────┼───────────────┼────────
    │ FLAG                                                 │ Multiclass{2} │ Categ ⋯
    │ Avg min between sent tnx                             │ Continuous    │ Float ⋯
    │ Avg min between received tnx                         │ Continuous    │ Float ⋯
    │ Time Diff between first and last (Mins)              │ Continuous    │ Float ⋯
    │ Sent tnx                                             │ Count         │ Int64 ⋯
    │ Received Tnx                                         │ Count         │ Int64 ⋯
    │ Number of Created Contracts                          │ Count         │ Int64 ⋯
    │ Unique Received From Addresses                       │ Count         │ Int64 ⋯
    │ Unique Sent To Addresses                             │ Count         │ Int64 ⋯
    │ min value received                                   │ Continuous    │ Float ⋯
    │ max value received                                   │ Continuous    │ Float ⋯
    │ avg val received                                     │ Continuous    │ Float ⋯
    │ min val sent                                         │ Continuous    │ Float ⋯
    │ max val sent                                         │ Continuous    │ Float ⋯
    │ avg val sent                                         │ Continuous    │ Float ⋯
    │ min value sent to contract                           │ Continuous    │ Float ⋯
    │                          ⋮                           │       ⋮       │       ⋱
    └──────────────────────────────────────────────────────┴───────────────┴────────
                                                        1 column and 30 rows omitted
…
