…
```julia
X_under, y_under = enn_undersample(
	X,
	y;
	k = 1,
	keep_condition = "only mode",
	min_ratios=0.01,
	rng = 42,
)
```


    (448×2 DataFrame
     Row │ Height   Weight  
         │ Float64  Float64 
    ─────┼──────────────────
       1 │   173.0     82.0
       2 │   182.0     70.0
       3 │   156.0     52.0
       4 │   172.0     67.0
       5 │   162.0     58.0
       6 │   180.0     75.0
       7 │   190.0     83.0
       8 │   195.0     81.0
      ⋮  │    ⋮        ⋮
     442 │   196.0     50.0
     443 │   191.0     54.0
     444 │   185.0     52.0
     445 │   182.0     50.0
     446 │   198.0     50.0
     447 │   198.0     50.0
     448 │   181.0     51.0
            433 rows omitted, CategoricalArrays.CategoricalValue{Int64, UInt32}[2, 2, 2, 2, 2, 2, 2, 2, 2, 2  …  0, 0, 0, 0, 0, 0, 0, 0, 0, 0])
…
